-96 -32 -104 -120 608
-48 -40 888
-8 -16 -24 48 -72 784
-56 -48 -80 -8 768
992
144 -112 -40 -120 -112 424
992
-80 216 -104 568
-128 -24 -112 -152 -136 -104 288
992
232 -120 -120 496
-136 -8 832
-48 -8 -48 8 -16 824
80 -88 -56 744
992
-32 -72 872
-136 32 -24 776
-104 -88 784
992
992
