712 -112 -120 24
992
48 -48 48 -48 48 -48 48 -48 -48 488
992
24 -8 24 -8 40 -8 8 -8 -8 8 -8 24 -8 -8 -8 -8 -8 -8 -8 -8 -8 576
40 -40 40 -40 40 -40 40 -40 40 -40 40 -40 -40 -40 -40 272
424 -32 -32 -32 -32 -32 -32 -32 280
-8 168 -104 -168 512
992
992
992
992
80 -8 8 -8 8 -8 -8 -96 -8 88 -112 472
-40 -40 -8 -8 -16 -48 -8 -16 -16 56 -64 -64 -72 -72 352
232 -120 -160 456
-8 -16 -24 -32 40 -48 776
-80 -80 -80 -160 560
-8 -80 96 -8 -80 -8 664
-8 976
-8 -16 -24 -32 -24 -16 -8 808
