-72 -40 864
992
-16 -24 80 -120 -88 624
992
240 -120 -160 -40 -128 264
-96 -56 -104 16 -32 648
120 -104 -32 712
-24 -136 816
992
-120 360 -120 368
992
80 -88 -152 88 -24 -128 384
24 -96 -64 -48 -80 -80 -72 472
40 -64 168 -96 592
80 -136 -120 632
-48 -64 864
-64 -160 752
-48 -24 48 -48 -72 712
-24 -56 -72 -96 712
-144 -64 768
992
-56 -56 -72 -104 672
-56 -56 864
-152 -80 744
-24 48 -160 736
-48 -40 -48 -8 48 -56 -40 648
992
96 -56 -160 656
-104 -56 48 -8 8 -40 680
992
