-992
992
8 -8 8 -8 -8 -8 -8 880
72 -120 48 -96 -104 512
-8 976
-960 -8 -8
-80 -120 -16 -96 648
-80 -64 -112 -16 688
-48 -24 -16 24 -80 -48 -8 -40 -8 -40 -32 536
8 -16 -24 -16 -16 -16 48 -72 -80 624
-72 -64 -48 -64 56 -112 -88 432
376 -192 -8 16 -248 112
8 -24 40 -56 88 -104 -136 -152 -96 216
-240 240 -240 248
232 -224 -240 -248 16
-56 -40 -32 -160 -560 104
96 -104 -112 -120 -128 -136 -144 96
744 -8 -8 -184 16
-104 -880
16 -24 -56 -120 -240 -496
